{
  "$schema": "http://json-schema.org/draft-07/schema#",
  "type": "object",
  "properties": {
    "X-Plasma-RootPath": {
      "type": "string"
    },
    "X-Plasma-DropMimeTypes": {
      "type": "array",
      "items": {
        "type": "string"
      }
    },
    "X-KDE-ParentApp": {
      "type": "string"
    },
    "X-Plasma-ContainmentType": {
      "type": "string"
    },
    "X-Plasma-Provides": {
      "type": "array",
      "items": {
        "type": "string"
      }
    },
    "X-Plasma-DropUrlPatterns": {
      "type": "array",
      "items": {
        "type": "string"
      }
    },
    "X-Plasma-API": {
      "type": "string"
    }
  }
}
